Lab1_ALU/simulation/qsim/ALU.msim.vcd
$comment
	File created using the following command:
		vcd file ALU.msim.vcd -direction
$end
$date
	Sat Oct 16 20:26:44 2021
$end
$version
	ModelSim Version 10.5b
$end
$timescale
	1ps
$end

$scope module ALU_vlg_vec_tst $end
$var reg 4 ! A [3:0] $end
$var reg 4 " B [3:0] $end
$var reg 2 # SEL [1:0] $end
$var wire 1 $ OUTPUT [3] $end
$var wire 1 % OUTPUT [2] $end
$var wire 1 & OUTPUT [1] $end
$var wire 1 ' OUTPUT [0] $end

$scope module i1 $end
$var wire 1 ( gnd $end
$var wire 1 ) vcc $end
$var wire 1 * unknown $end
$var tri1 1 + devclrn $end
$var tri1 1 , devpor $end
$var tri1 1 - devoe $end
$var wire 1 . ~QUARTUS_CREATED_GND~I_combout $end
$var wire 1 / B[3]~input_o $end
$var wire 1 0 A[1]~input_o $end
$var wire 1 1 B[1]~input_o $end
$var wire 1 2 B[0]~input_o $end
$var wire 1 3 B[2]~input_o $end
$var wire 1 4 A[0]~input_o $end
$var wire 1 5 A[2]~input_o $end
$var wire 1 6 inst2|inst2|inst|$00000|auto_generated|l1_w3_n0_mux_dataout~0_combout $end
$var wire 1 7 SEL[0]~input_o $end
$var wire 1 8 SEL[1]~input_o $end
$var wire 1 9 A[3]~input_o $end
$var wire 1 : inst2|inst2|inst|$00000|auto_generated|l1_w3_n0_mux_dataout~1_combout $end
$var wire 1 ; inst2|inst2|inst|$00000|auto_generated|l1_w3_n0_mux_dataout~2_combout $end
$var wire 1 < inst1|inst1|inst3~combout $end
$var wire 1 = inst1|inst1|inst2~combout $end
$var wire 1 > inst2|inst2|inst|$00000|auto_generated|l1_w2_n0_mux_dataout~0_combout $end
$var wire 1 ? inst2|inst2|inst|$00000|auto_generated|l1_w1_n0_mux_dataout~0_combout $end
$var wire 1 @ inst2|inst2|inst|$00000|auto_generated|l1_w0_n0_mux_dataout~0_combout $end
$upscope $end
$upscope $end
$enddefinitions $end
#0
$dumpvars
b11 !
b100 "
b0 #
1'
1&
0%
0$
0(
1)
x*
1+
1,
1-
0.
0/
10
01
02
13
14
05
06
07
08
09
1:
0;
0<
0=
0>
1?
1@
$end
#20000
b1 #
17
0:
0@
0?
1>
1;
1$
1%
0&
0'
0;
0$
#40000
b11 #
b10 #
07
18
1:
1@
1?
1;
1$
1&
1'
0;
0$
#50000
b1011 !
b1001 !
b1000 !
04
00
19
1;
0?
0@
0'
0&
1$
#60000
b11 #
17
0:
0>
0%
0;
0$
#80000
b1 #
b0 #
07
08
1:
1;
1$
#100000
b1 #
17
0:
1>
1%
0;
0$
#120000
b0 !
b1 !
b11 #
b10 #
07
18
14
09
1:
1;
1@
1'
1$
0;
0$
#140000
b11 #
17
0:
0@
0>
1;
1$
0%
0'
0;
0$
#160000
b101 !
b0 "
b10 "
b11 "
b1 #
b0 #
07
08
12
11
03
15
1:
16
1=
1>
1@
1'
1%
#180000
b1 #
17
0:
1?
0>
0%
1&
#200000
b111 "
b110 "
b11 #
b10 #
07
18
02
13
06
0=
1>
1;
1$
1%
0>
0%
#220000
b11 #
17
0@
0?
1>
0;
0$
1%
0&
0'
#240000
b1 #
b0 #
07
08
1@
1'
#250000
b100 "
b0 "
01
03
1:
#260000
b1 #
17
0:
0@
0>
1;
1$
0%
0'
0;
0$
#280000
b1101 !
b1001 !
b1 "
b11 #
b10 #
07
18
12
05
19
1:
1?
1&
1;
1$
#300000
b11 #
17
0:
1@
0?
0&
1'
0;
0$
#320000
b1 #
b0 #
07
08
1:
1;
1$
#340000
b1011 !
b11 "
b11 !
b111 !
b10 "
b1 #
17
02
11
10
15
09
0:
1<
1?
0@
0'
1&
0;
0$
#360000
b11 #
b10 #
07
18
1@
0?
1;
1$
0&
1'
#380000
b0 "
b11 #
17
01
0<
0@
0;
0$
0'
#400000
b1 #
b0 #
07
08
1:
1@
1?
1>
1%
1&
1'
#420000
b1 #
17
0:
0@
0?
0>
1;
1$
0%
0&
0'
0;
0$
#430000
b110 !
b100 "
b10 !
b101 "
12
13
04
05
1>
1@
1'
1%
#440000
b11 #
b10 #
07
18
1:
1?
1;
1$
1&
0;
0$
#460000
b11 #
17
0:
0@
0?
0>
1;
1$
0%
0&
0'
0;
0$
#480000
b110 !
b1 #
b0 #
07
08
15
1>
1?
1&
1%
#500000
b1 #
17
1@
0?
0&
1'
#520000
b11 #
b10 #
07
18
1?
0>
1;
1$
0%
1&
#540000
b11 #
17
0@
0?
1>
0;
0$
1%
0&
0'
#550000
b100 !
b1 "
b0 "
b0 !
02
03
00
05
0>
0%
#560000
b1 #
b0 #
07
08
1:
